Responding to analysis and communication: Data science the R way
…
```r
arrange(gapminder, pop)
```

```
## # A tibble: 1,704 x 6
##    country               continent  year lifeExp   pop gdpPercap
##    <fct>                 <fct>     <int>   <dbl> <int>     <dbl>
##  1 Sao Tome and Principe Africa     1952    46.5 60011       880
##  2 Sao Tome and Principe Africa     1957    48.9 61325       861
##  3 Djibouti              Africa     1952    34.8 63149      2670
##  4 Sao Tome and Principe Africa     1962    51.9 65345      1072
##  5 Sao Tome and Principe Africa     1967    54.4 70787      1385
##  6 Djibouti              Africa     1957    37.3 71851      2865
##  7 Sao Tome and Principe Africa     1972    56.5 76595      1533
##  8 Sao Tome and Principe Africa     1977    58.6 86796      1738
##  9 Djibouti              Africa     1962    39.7 89898      3021
## 10 Sao Tome and Principe Africa     1982    60.4 98593      1890
## # ... with 1,694 more rows
```
---

```r
arrange(gapminder, desc(lifeExp))
```

```
## # A tibble: 1,704 x 6
##    country          continent  year lifeExp       pop gdpPercap
##    <fct>            <fct>     <int>   <dbl>     <int>     <dbl>
##  1 Japan            Asia       2007    82.6 127467972     31656
##  2 Hong Kong, China Asia       2007    82.2   6980412     39725
##  3 Japan            Asia       2002    82.0 127065841     28605
##  4 Iceland          Europe     2007    81.8    301931     36181
##  5 Switzerland      Europe     2007    81.7   7554661     37506
##  6 Hong Kong, China Asia       2002    81.5   6762476     30209
##  7 Australia        Oceania    2007    81.2  20434176     34435
##  8 Spain            Europe     2007    80.9  40448191     28821
##  9 Sweden           Europe     2007    80.9   9031088     33860
## 10 Israel           Asia       2007    80.7   6426679     25523
## # ... with 1,694 more rows
```
…
2) Produce a scattep plot: what does it tell you?

3) Fit a regression model: is there a relationship? How strong is it?
Is the relationship linear? What conclusion(s) can you draw?

4) What are the other questions you could ask; could you provide the answers to them?
---
## Possible Solution: code Q1; sample

```r
sample_n(gapminder, 30)
```

```
## # A tibble: 30 x 6
##    country      continent  year lifeExp        pop gdpPercap
##    <fct>        <fct>     <int>   <dbl>      <int>     <dbl>
##  1 Burundi      Africa     1962    42.0    2961915       355
##  2 Puerto Rico  Americas   1987    74.6    3444468     12281
##  3 Venezuela    Americas   2007    73.7   26084662     11416
##  4 Burkina Faso Africa     1967    40.7    5127935       795
##  5 Spain        Europe     1952    64.9   28549870      3834
##  6 Afghanistan  Asia       2002    42.1   25268405       727
##  7 Panama       Americas   1997    73.7    2734531      7114
##  8 China        Asia       1982    65.5 1000281000       962
##  9 Ireland      Europe     1972    71.3    3024400      9531
## 10 Madagascar   Africa     1967    42.9    6334556      1634
## # ... with 20 more rows
```
…
